2 Datos – Aprendizaje Automático
…
is.data.frame(datos)

[1] TRUE

Un tibble, o tbl_df, es una actualización del concepto del data frame. Los tibbles son data.frames perezosos. Esto le obliga a enfrentarse a los problemas antes, lo que normalmente conduce a un código más limpio y expresivo. Los tibbles también tienen un método print() mejorado que facilita su uso con grandes conjuntos de datos que contienen objetos complejos.

library(tidyverse)
as.tibble(iris)

# A tibble: 150 × 5
   Sepal.Length Sepal.Width Petal.Length Petal.Width Species
          <dbl>       <dbl>        <dbl>       <dbl> <fct>  
 1          5.1         3.5          1.4         0.2 setosa 
 2          4.9         3            1.4         0.2 setosa 
 3          4.7         3.2          1.3         0.2 setosa 
 4          4.6         3.1          1.5         0.2 setosa 
 5          5           3.6          1.4         0.2 setosa 
 6          5.4         3.9          1.7         0.4 setosa 
 7          4.6         3.4          1.4         0.3 setosa 
 8          5           3.4          1.5         0.2 setosa 
 9          4.4         2.9          1.4         0.2 setosa 
10          4.9         3.1          1.5         0.1 setosa 
# ℹ 140 more rows
…
