3 Análisis Exploratorio de Datos – Aprendizaje Automático
…
Leemos los datos con R.

library(tidyverse)

url_matches <- "https://raw.githubusercontent.com/JeffSackmann/tennis_wta/master/wta_matches_2023.csv"
tennis <- read_csv(url_matches, show_col_types = FALSE)

dim(tennis)

[1] 2810   49

tennis <- as_tibble(tennis)
tennis

# A tibble: 2,810 × 49
   tourney_id tourney_name surface draw_size tourney_level tourney_date
   <chr>      <chr>        <chr>       <dbl> <chr>                <dbl>
 1 2023-9900  United Cup   Hard           18 I                 20230102
 2 2023-9900  United Cup   Hard           18 I                 20230102
 3 2023-9900  United Cup   Hard           18 I                 20230102
 4 2023-9900  United Cup   Hard           18 I                 20230102
 5 2023-9900  United Cup   Hard           18 I                 20230102
 6 2023-9900  United Cup   Hard           18 I                 20230102
 7 2023-9900  United Cup   Hard           18 I                 20230102
 8 2023-9900  United Cup   Hard           18 I                 20230102
 9 2023-9900  United Cup   Hard           18 I                 20230102
10 2023-9900  United Cup   Hard           18 I                 20230102
# ℹ 2,800 more rows
# ℹ 43 more variables: match_num <dbl>, winner_id <dbl>, winner_seed <dbl>,
#   winner_entry <chr>, winner_name <chr>, winner_hand <chr>, winner_ht <dbl>,
#   winner_ioc <chr>, winner_age <dbl>, loser_id <dbl>, loser_seed <dbl>,
#   loser_entry <chr>, loser_name <chr>, loser_hand <chr>, loser_ht <dbl>,
#   loser_ioc <chr>, loser_age <dbl>, score <chr>, best_of <dbl>, round <chr>,
#   minutes <dbl>, w_ace <dbl>, w_df <dbl>, w_svpt <dbl>, w_1stIn <dbl>, …
…
dim(tennis_ml)

[1] 2741    9

tennis_ml

# A tibble: 2,741 × 9
   surface draw_size winner_rank loser_rank winner_age loser_age
   <fct>       <dbl>       <dbl>      <dbl>      <dbl>     <dbl>
 1 Hard           18           3         27       28.8      29.1
 2 Hard           18          11         54       27.8      24  
 3 Hard           18           3          1       28.8      21.5
 4 Hard           18          11         48       27.8      30.8
 5 Hard           18          27          6       29.1      27.4
 6 Hard           18          54        199       24        25.8
 7 Hard           18           6         38       27.4      31.9
 8 Hard           18          67        158       26.5      29.8
 9 Hard           18           1         27       21.5      29.1
10 Hard           18          48         54       30.8      24  
# ℹ 2,731 more rows
# ℹ 3 more variables: winner_is_better_rank <fct>, rank_diff <dbl>,
#   age_diff <dbl>
…
